<svg xmlns="http://www.w3.org/2000/svg" style="display:none;">

  <symbol id="facebook" viewBox="0 0 24 24">
    <path fill="currentColor" d="M19.2,3C20.19,3 21,3.81 21,4.8L21,19.2C21,20.19 20.19,21 19.2,21L4.8,21C3.81,21 3,20.19 3,19.2L3,4.8C3,3.81 3.81,3 4.8,3L19.2,3ZM18.4,7.4L18.4,5L16,5C13.7,5 12.9,6.1 12.9,8.1L12.9,9.6L11.7,9.6L11.7,12L12.9,12L12.9,19L16.1,19L16.1,12L18,12L18.1,9.7L16,9.7L16,8.4C16,7.7 16.1,7.4 17,7.4L18.4,7.4Z"/>
  </symbol>
  
  <symbol id="instagram" viewBox="0 0 24 24"><path fill="currentColor" d="M8,3c-2.761,0 -5,2.239 -5,5l0,8c0,2.761 2.239,5 5,5l8,0c2.761,0 5,-2.239 5,-5l0,-8c0,-2.761 -2.239,-5 -5,-5l-8,0Zm10,2c0.552,0 1,0.448 1,1c0,0.552 -0.448,1 -1,1c-0.552,0 -1,-0.448 -1,-1c0,-0.552 0.448,-1 1,-1Zm-6,2c2.761,0 5,2.239 5,5c0,2.761 -2.239,5 -5,5c-2.761,0 -5,-2.239 -5,-5c0,-2.761 2.239,-5 5,-5Zm0,2c-1.646,0 -3,1.354 -3,3c0,1.646 1.354,3 3,3c1.646,0 3,-1.354 3,-3c0,-1.646 -1.354,-3 -3,-3Z"/></symbol>


  <symbol id="mercadopago" viewBox="0 0 24 24"><path style="fill-rule:evenodd;clip-rule:evenodd;" fill="currentColor" d="M23,11.581c0,-3.963 -4.925,-7.194 -11,-7.194c-6.074,0 -10.999,3.231 -10.999,7.194c0,0.103 -0.001,0.386 -0.001,0.422c0,4.204 4.305,7.61 10.999,7.61c6.736,0 11.001,-3.405 11.001,-7.61c0,-0.147 0,-0.231 0,-0.422Zm-21.551,-0.451c-0.015,0.148 -0.022,0.297 -0.022,0.448c0,3.737 4.734,6.766 10.576,6.766c5.841,0 10.576,-3.029 10.576,-6.766c0,-0.113 -0.005,-0.226 -0.013,-0.338c-1.976,0.446 -3.653,1.058 -4.387,1.374c0.111,0.183 0.163,0.395 0.146,0.606c-0.025,0.309 -0.188,0.576 -0.46,0.749c-0.213,0.136 -0.436,0.204 -0.663,0.204c-0.078,0 -0.157,-0.008 -0.234,-0.024c0.008,0.246 -0.069,0.622 -0.507,0.91c-0.228,0.149 -0.466,0.224 -0.708,0.224c-0.077,0 -0.155,-0.008 -0.23,-0.023c-0.001,0.003 -0.001,0.005 -0.002,0.008c-0.023,0.198 -0.182,0.43 -0.406,0.591c-0.228,0.166 -0.454,0.246 -0.689,0.246c-0.128,0 -0.24,-0.024 -0.341,-0.053c-0.013,0.025 -0.028,0.049 -0.044,0.072c-0.092,0.131 -0.293,0.3 -0.723,0.354c-0.053,0.006 -0.106,0.01 -0.162,0.01c-0.433,0 -0.862,-0.205 -1.065,-0.318c-0.238,0.245 -0.563,0.383 -0.902,0.382c-0.512,0 -0.971,-0.311 -1.164,-0.781c-0.104,0.039 -0.214,0.059 -0.326,0.059c-0.137,0 -0.278,-0.03 -0.419,-0.087c-0.402,-0.163 -0.582,-0.417 -0.662,-0.62c-0.08,0.021 -0.162,0.031 -0.243,0.031c-0.126,0 -0.254,-0.025 -0.381,-0.074c-0.433,-0.168 -0.716,-0.497 -0.805,-0.93c-0.064,0.012 -0.13,0.018 -0.196,0.018c-0.589,-0.001 -1.068,-0.48 -1.067,-1.069c0,-0.14 0.028,-0.28 0.082,-0.409c-0.159,-0.125 -1.1,-0.783 -3.949,-1.415c-0.095,-0.022 -0.55,-0.131 -0.61,-0.145Zm7.454,3.443l0.03,0.027c0.025,0.029 0.023,0.067 0.018,0.103c-0.02,0.136 -0.013,0.473 0.478,0.672c0.099,0.04 0.192,0.06 0.278,0.06c0.191,0 0.321,-0.096 0.423,-0.191c0.037,-0.033 0.068,-0.055 0.105,-0.055c0.089,0 0.093,0.105 0.094,0.145c0.017,0.46 0.395,0.821 0.86,0.822c0.475,0 0.862,-0.386 0.863,-0.861c0,-0.47 -0.387,-0.858 -0.863,-0.863l0,0c-0.121,0 -0.251,0.045 -0.337,0.074c-0.059,0.02 -0.094,0.033 -0.122,0.033l-0.019,0l-0.025,-0.012c-0.051,-0.034 -0.049,-0.093 0.006,-0.226c0.003,-0.009 0.29,-0.811 -0.342,-1.083c-0.129,-0.055 -0.253,-0.082 -0.37,-0.083c-0.256,0 -0.42,0.13 -0.495,0.209c-0.018,0.018 -0.043,0.04 -0.077,0.04c-0.012,0 -0.075,-0.004 -0.082,-0.092c-0.01,-0.15 -0.077,-0.51 -0.475,-0.631c-0.099,-0.031 -0.197,-0.046 -0.292,-0.046c-0.498,-0.001 -0.769,0.409 -0.781,0.427l-0.099,0.153l-0.023,-0.181c-0.042,-0.334 -0.327,-0.585 -0.662,-0.585c-0.37,-0.001 -0.672,0.3 -0.672,0.67c0,0.371 0.301,0.671 0.671,0.672c0.174,0 0.338,-0.067 0.464,-0.188l0.043,-0.041l0.046,0.038c0.023,0.019 0.033,0.048 0.028,0.085c-0.032,0.184 -0.083,0.794 0.564,1.045c0.078,0.031 0.156,0.046 0.232,0.046c0.139,0 0.275,-0.049 0.417,-0.148c0.035,-0.025 0.061,-0.035 0.086,-0.035l0.03,0Zm-5.145,-7.233c-1.179,0.937 -1.976,2.081 -2.238,3.333c0.191,0.055 0.496,0.143 0.629,0.173c2.789,0.633 3.831,1.295 4.094,1.496c0.2,-0.199 0.47,-0.311 0.751,-0.311c0.322,0 0.627,0.148 0.829,0.4c0.21,-0.15 0.447,-0.226 0.703,-0.226c0.147,0 0.299,0.027 0.452,0.08c0.276,0.094 0.488,0.275 0.616,0.523c0.122,-0.047 0.251,-0.07 0.386,-0.07c0.172,0 0.349,0.039 0.526,0.116c0.616,0.264 0.661,0.865 0.639,1.182c0.015,0 0.03,-0.001 0.045,-0.001c0.695,0.001 1.259,0.566 1.258,1.26c0,0.185 -0.041,0.368 -0.12,0.535c0.174,0.092 0.511,0.245 0.826,0.245c0.038,0 0.076,-0.002 0.112,-0.007c0.306,-0.038 0.409,-0.14 0.439,-0.182c0.02,-0.029 0.031,-0.049 0.032,-0.057l-0.844,-0.93c-0.052,-0.05 -0.174,-0.183 -0.093,-0.273c0.024,-0.026 0.055,-0.04 0.09,-0.04c0.07,0 0.138,0.058 0.192,0.103c0.413,0.345 0.911,0.854 0.965,0.91l0.012,0.012c0.032,0.038 0.098,0.065 0.195,0.082c0.04,0.008 0.086,0.012 0.134,0.012c0.089,0 0.315,-0.015 0.483,-0.153c0.031,-0.026 0.063,-0.056 0.093,-0.089l0.034,-0.044c0.182,-0.232 -0.014,-0.465 -0.022,-0.475l-0.989,-1.111c0,0 -0.037,-0.034 -0.069,-0.076c-0.076,-0.102 -0.055,-0.163 -0.024,-0.197c0.023,-0.024 0.052,-0.036 0.085,-0.036c0.067,0 0.137,0.05 0.202,0.105c0.269,0.224 0.636,0.585 0.992,0.935l0.194,0.192c0.032,0.022 0.179,0.117 0.387,0.117c0.158,0 0.32,-0.053 0.48,-0.159c0.225,-0.147 0.333,-0.336 0.322,-0.562c-0.018,-0.209 -0.185,-0.366 -0.187,-0.367l-1.356,-1.363c-0.089,-0.075 -0.164,-0.19 -0.097,-0.273c0.022,-0.027 0.053,-0.042 0.089,-0.042c0.067,0 0.133,0.051 0.201,0.107c0.427,0.358 1.588,1.422 1.6,1.432c0.01,0.008 0.166,0.114 0.393,0.114c0.151,0 0.3,-0.047 0.444,-0.138c0.167,-0.107 0.263,-0.26 0.271,-0.433c0.015,-0.31 -0.201,-0.496 -0.203,-0.498c-0.033,-0.029 -3.421,-2.993 -4.187,-3.568c-0.429,-0.322 -0.67,-0.407 -0.918,-0.438c-0.028,-0.004 -0.057,-0.005 -0.088,-0.005c-0.104,0 -0.233,0.017 -0.338,0.046c-0.377,0.103 -0.868,0.452 -1.215,0.727c-0.434,0.345 -0.844,0.672 -1.235,0.76c-0.122,0.027 -0.255,0.041 -0.395,0.041c-0.37,0 -0.768,-0.101 -0.99,-0.251c-0.119,-0.08 -0.203,-0.174 -0.245,-0.272c-0.105,-0.244 0.054,-0.442 0.128,-0.516l0.932,-1.009c0.061,-0.06 0.121,-0.12 0.181,-0.179c-0.226,0.043 -0.441,0.102 -0.636,0.157c-0.329,0.092 -0.67,0.188 -1.011,0.188c-0.153,0 -0.306,-0.017 -0.45,-0.026c-0.515,-0.033 -2.144,-0.457 -3.486,-1.006Zm16.668,0.146c-1.069,0.491 -2.085,0.734 -3.07,0.734c-0.946,-0.001 -1.888,-0.227 -2.8,-0.672c-0.109,-0.05 -1.082,-0.486 -2.055,-0.487c-0.026,0 -0.052,0.001 -0.078,0.002c-1.563,0.036 -2.242,0.714 -2.961,1.433l-0.918,0.99l-0.006,0.007c-0.043,0.055 -0.055,0.093 -0.036,0.116c0.111,0.143 0.409,0.239 0.741,0.239c0.133,0 0.266,-0.015 0.395,-0.044c0.297,-0.066 0.688,-0.378 1.067,-0.679l0.021,-0.016c0.407,-0.324 0.827,-0.658 1.249,-0.792c0.187,-0.059 0.365,-0.089 0.531,-0.089c0.179,0 0.318,0.035 0.418,0.065c0.224,0.067 0.478,0.215 0.851,0.496c0.654,0.49 3.065,2.586 4.109,3.497c0.447,-0.199 2.231,-0.971 4.623,-1.502c-0.225,-1.231 -0.966,-2.361 -2.081,-3.298Zm-0.371,-0.295c-1.94,-1.456 -4.828,-2.379 -8.052,-2.379c-3.122,0 -5.927,0.865 -7.863,2.241c1.284,0.485 2.894,0.88 3.214,0.889c0.018,0.001 0.225,0.011 0.34,0.011c0.279,0.001 0.566,-0.079 0.897,-0.171c0.371,-0.104 0.788,-0.221 1.272,-0.232c0.498,-0.409 1.237,-0.875 2.55,-0.906c0.029,0 0.059,-0.001 0.088,-0.001c1.118,0.001 2.192,0.507 2.237,0.529c0.856,0.417 1.738,0.629 2.621,0.63c0.863,0 1.757,-0.205 2.696,-0.611Z" /></symbol>

  <symbol id="todopago" viewBox="0 0 24 24"><path d="M19.475,20.5l-14.95,0c-0.564,0 -1.025,-0.462 -1.025,-1.025l0,-14.95c0,-0.564 0.461,-1.025 1.025,-1.025l14.95,0c0.564,0 1.025,0.461 1.025,1.025l0,14.95c0,0.563 -0.461,1.025 -1.025,1.025Zm-4.747,-13.302l-8.35,0c-0.534,0 -0.972,0.438 -0.972,0.971c0,0.533 0.438,0.971 0.972,0.971l2.66,0c0.036,0 0.064,0.029 0.064,0.066c0,0.036 -0.022,0.054 -0.064,0.065c-0.026,0.007 -0.384,0.105 -0.636,0.173l0,6.357c0,0.588 0.465,1.053 1.053,1.053c0.588,0 1.053,-0.465 1.053,-1.053l0,-6.331c0.011,-0.178 0.154,-0.32 0.332,-0.33l2.473,0c0.001,0 0.001,0 0.002,0l1.235,0c1.053,0 1.71,0.465 1.71,1.409l0,0.027c0,0.821 -0.615,1.45 -1.669,1.45l-1.622,0c-0.785,0 -0.85,0.372 -0.85,0.702l0,3.073c0,0.588 0.465,1.053 1.053,1.053c0.588,0 1.053,-0.465 1.053,-1.053l0,-1.571c-0.248,-0.069 -0.682,-0.188 -0.711,-0.195c-0.042,-0.012 -0.064,-0.031 -0.064,-0.068c0,-0.037 0.028,-0.067 0.064,-0.067l1.009,0c2.147,0 3.871,-1.149 3.871,-3.365l0,-0.027c0,-1.956 -1.381,-3.31 -3.666,-3.31Z" fill="currentColor"/></symbol>

</svg>