[
  {
    "id": "761044-MLA27773638319_072018",
    "imgUrl": true,
    "size": "1000x1000",
    "url": "https://mla-s1-p.mlstatic.com/761044-MLA27773638319_072018-F.jpg",
    "thumbnail_url": "https://mla-s2-p.mlstatic.com/761044-MLA27773638319_072018-O.jpg"
  },
  {
    "id": "723957-MLA27773642740_072018",
    "imgUrl": true,
    "size": "640x640",
    "url": "https://mla-s1-p.mlstatic.com/723957-MLA27773642740_072018-F.jpg",
    "thumbnail_url": "https://mla-s2-p.mlstatic.com/723957-MLA27773642740_072018-O.jpg"
  },
  {
    "id": "818266-MLA27773653122_072018",
    "imgUrl": true,
    "size": "953x568",
    "url": "https://mla-s1-p.mlstatic.com/818266-MLA27773653122_072018-F.jpg",
    "thumbnail_url": "https://mla-s2-p.mlstatic.com/818266-MLA27773653122_072018-O.jpg"
  },
  {
    "id": "617633-MLA27352504345_052018",
    "imgUrl": true,
    "size": "820x410",
    "url": "https://mla-s1-p.mlstatic.com/617633-MLA27352504345_052018-F.jpg",
    "thumbnail_url": "https://mla-s2-p.mlstatic.com/617633-MLA27352504345_052018-O.jpg"
  }
]