[
  {
    "id": "661619-MLA26253503262_102017",
    "imgUrl": true,
    "size": "596x386",
    "url": "https://mla-s1-p.mlstatic.com/661619-MLA26253503262_102017-F.jpg",
    "thumbnail_url": "https://mla-s2-p.mlstatic.com/661619-MLA26253503262_102017-O.jpg"
  }
]