[
  {
    "id": "853307-MLA27352415110_052018",
    "imgUrl": true,
    "size": "1200x800",
    "url": "https://mla-s2-p.mlstatic.com/853307-MLA27352415110_052018-F.jpg",
    "thumbnail_url": "https://mla-s2-p.mlstatic.com/853307-MLA27352415110_052018-O.jpg"
  },
  {
    "id": "874457-MLA27352393896_052018",
    "imgUrl": true,
    "size": "1200x800",
    "url": "https://mla-s1-p.mlstatic.com/874457-MLA27352393896_052018-F.jpg",
    "thumbnail_url": "https://mla-s2-p.mlstatic.com/874457-MLA27352393896_052018-O.jpg"
  }
]