[
  {
    "id": "650613-MLA27963257227_082018",
    "imgUrl": true,
    "size": "1066x734",
    "url": "https://mla-s1-p.mlstatic.com/650613-MLA27963257227_082018-F.jpg",
    "thumbnail_url": "https://mla-s1-p.mlstatic.com/650613-MLA27963257227_082018-O.jpg"
  },
  {
    "id": "746554-MLA27963279028_082018",
    "imgUrl": true,
    "size": "1066x770",
    "url": "https://mla-s2-p.mlstatic.com/746554-MLA27963279028_082018-F.jpg",
    "thumbnail_url": "https://mla-s1-p.mlstatic.com/746554-MLA27963279028_082018-O.jpg"
  },
  {
    "id": "907257-MLA27963265160_082018",
    "imgUrl": true,
    "size": "1060x798",
    "url": "https://mla-s1-p.mlstatic.com/907257-MLA27963265160_082018-F.jpg",
    "thumbnail_url": "https://mla-s1-p.mlstatic.com/907257-MLA27963265160_082018-O.jpg"
  },
  {
    "id": "825453-MLA27963275157_082018",
    "imgUrl": true,
    "size": "1020x698",
    "url": "https://mla-s1-p.mlstatic.com/825453-MLA27963275157_082018-F.jpg",
    "thumbnail_url": "https://mla-s1-p.mlstatic.com/825453-MLA27963275157_082018-O.jpg"
  }
]