[
  {
    "id": "960463-MLA25926365269_082017",
    "imgUrl": true,
    "size": "1200x900",
    "url": "https://mla-s2-p.mlstatic.com/960463-MLA25926365269_082017-F.jpg",
    "thumbnail_url": "https://mla-s2-p.mlstatic.com/960463-MLA25926365269_082017-O.jpg"
  },
  {
    "id": "718665-MLA25926364272_082017",
    "imgUrl": true,
    "size": "1200x900",
    "url": "https://mla-s2-p.mlstatic.com/718665-MLA25926364272_082017-F.jpg",
    "thumbnail_url": "https://mla-s2-p.mlstatic.com/718665-MLA25926364272_082017-O.jpg"
  },
  {
    "id": "762502-MLA26626479552_012018",
    "imgUrl": true,
    "size": "800x495",
    "url": "https://mla-s1-p.mlstatic.com/762502-MLA26626479552_012018-F.jpg",
    "thumbnail_url": "https://mla-s2-p.mlstatic.com/762502-MLA26626479552_012018-O.jpg"
  },
  {
    "id": "721384-MLA25926360342_082017",
    "imgUrl": true,
    "size": "900x1200",
    "url": "https://mla-s2-p.mlstatic.com/721384-MLA25926360342_082017-F.jpg",
    "thumbnail_url": "https://mla-s2-p.mlstatic.com/721384-MLA25926360342_082017-O.jpg"
  },
  {
    "id": "897889-MLA25926370047_082017",
    "imgUrl": true,
    "size": "1200x900",
    "url": "https://mla-s1-p.mlstatic.com/897889-MLA25926370047_082017-F.jpg",
    "thumbnail_url": "https://mla-s2-p.mlstatic.com/897889-MLA25926370047_082017-O.jpg"
  }
]