[
  {
    "id": "903643-MLA27355129121_052018",
    "imgUrl": true,
    "size": "596x794",
    "url": "https://mla-s2-p.mlstatic.com/903643-MLA27355129121_052018-F.jpg",
    "thumbnail_url": "https://mla-s2-p.mlstatic.com/903643-MLA27355129121_052018-O.jpg"
  },
  {
    "id": "834456-MLA27355120732_052018",
    "imgUrl": true,
    "size": "960x720",
    "url": "https://mla-s2-p.mlstatic.com/834456-MLA27355120732_052018-F.jpg",
    "thumbnail_url": "https://mla-s2-p.mlstatic.com/834456-MLA27355120732_052018-O.jpg"
  },
  {
    "id": "840453-MLA27355130623_052018",
    "imgUrl": true,
    "size": "960x720",
    "url": "https://mla-s2-p.mlstatic.com/840453-MLA27355130623_052018-F.jpg",
    "thumbnail_url": "https://mla-s2-p.mlstatic.com/840453-MLA27355130623_052018-O.jpg"
  },
  {
    "id": "611132-MLA27352505600_052018",
    "imgUrl": true,
    "size": "820x410",
    "url": "https://mla-s2-p.mlstatic.com/611132-MLA27352505600_052018-F.jpg",
    "thumbnail_url": "https://mla-s2-p.mlstatic.com/611132-MLA27352505600_052018-O.jpg"
  }
]