[
  {
    "id": "930817-MLA27676910050_072018",
    "imgUrl": true,
    "size": "700x700",
    "url": "https://mla-s2-p.mlstatic.com/930817-MLA27676910050_072018-F.jpg",
    "thumbnail_url": "https://mla-s1-p.mlstatic.com/930817-MLA27676910050_072018-O.jpg"
  },
  {
    "id": "817897-MLA27559198135_062018",
    "imgUrl": true,
    "size": "1200x1037",
    "url": "https://mla-s1-p.mlstatic.com/817897-MLA27559198135_062018-F.jpg",
    "thumbnail_url": "https://mla-s1-p.mlstatic.com/817897-MLA27559198135_062018-O.jpg"
  },
  {
    "id": "669798-MLA27559198138_062018",
    "imgUrl": true,
    "size": "458x458",
    "url": "https://mla-s1-p.mlstatic.com/669798-MLA27559198138_062018-F.jpg",
    "thumbnail_url": "https://mla-s1-p.mlstatic.com/669798-MLA27559198138_062018-O.jpg"
  },
  {
    "id": "878686-MLA27559197700_062018",
    "imgUrl": true,
    "size": "1200x750",
    "url": "https://mla-s1-p.mlstatic.com/878686-MLA27559197700_062018-F.jpg",
    "thumbnail_url": "https://mla-s1-p.mlstatic.com/878686-MLA27559197700_062018-O.jpg"
  }
]