<?xml version="1.0" encoding="utf-8"?>
<svg viewBox="0 0 1587.4 300" height="100%" width="100%" id="svg2" version="1.1" xmlns="http://www.w3.org/2000/svg">
  <g transform="matrix(4.81676, 0, 0, -4.81676, 286.79718, 142.20813)" id="g40" style="">
    <title>Orbea</title>
    <path id="path42" style="fill: rgb(255, 255, 255); fill-opacity: 1; fill-rule: nonzero; stroke-width: 0.207608px; stroke: rgb(0, 0, 0);" d="m 0,0 c -3.576,-9.578 -15.279,-10.962 -23.283,-10.962 -8.006,0 -18.676,1.384 -15.094,10.962 3.574,9.58 15.279,10.961 23.281,10.961 C -7.09,10.961 3.581,9.58 0,0 M -12.695,17.066 C -26.896,17.066 -47.56,14.914 -53.25,0 c -5.689,-14.913 13.331,-17.064 27.534,-17.064 14.202,0 34.867,2.151 40.556,17.064 5.69,14.914 -13.332,17.066 -27.535,17.066"/>
  </g>
  <g transform="matrix(4.81676, 0, 0, -4.81676, 911.324585, 109.582253)" id="g44" style="">
    <title>Orbea</title>
    <path id="path46" style="fill: rgb(255, 255, 255); fill-opacity: 1; fill-rule: nonzero; stroke-width: 0.207608px; stroke: rgb(0, 0, 0);" d="m 0,0 c -1.084,-2.695 -4.639,-3.08 -7.078,-3.08 h -22.729 l 2.478,6.156 H -4.591 C -2.153,3.076 1.09,2.691 0,0 m -3.233,-12.81 c -1.269,-3.136 -5.418,-3.587 -8.254,-3.587 h -23.852 l 2.985,7.178 h 23.768 c 2.839,0 6.62,-0.453 5.353,-3.591 M 1.925,9.25 H -39.013 L -51.962,-22.801 H -9.89 c 7.213,0 17.713,1.046 20.648,8.311 2.282,5.643 -3.03,7.766 -8.896,8.336 v 0.156 C 7.31,-5.329 12.86,-3.27 14.81,1.555 17.524,8.276 8.595,9.25 1.925,9.25"/>
  </g>
  <g transform="matrix(4.81676, 0, 0, -4.81676, 609.693542, 114.097954)" id="g48" style="">
    <title>Orbea</title>
    <path id="path50" style="fill: rgb(255, 255, 255); fill-opacity: 1; fill-rule: nonzero; stroke-width: 0.207608px; stroke: rgb(0, 0, 0);" d="m 0,0 c -1.417,-3.505 -6.054,-4.015 -9.229,-4.015 h -22.897 l 3.244,8.029 h 22.9 c 3.17,0 7.4,-0.5 5.982,-4.014 m -1.465,10.188 h -39.153 l -12.898,-32.051 h 14.179 l 4.711,11.664 h 11.32 L -8.937,-21.863 H 8.084 l -15.165,11.777 c 9.446,0.455 18.977,2.526 21.879,10.08 3.428,8.908 -7.844,10.194 -16.263,10.194"/>
  </g>
  <g transform="matrix(4.81676, 0, 0, -4.81676, 1331.629028, 157.665146)" id="g52" style="">
    <title>Orbea</title>
    <path id="path54" style="fill: rgb(255, 255, 255); fill-opacity: 1; fill-rule: nonzero; stroke-width: 0.207608px; stroke: rgb(0, 0, 0);" d="M 0,0 16.855,11.65 22.568,0 Z M 28.855,19.232 H 12.314 L -24.787,-6.415 h -19.629 c -6.35,0 -14.068,0.769 -13.681,6.921 h 33.802 l 2.479,6.151 h -33.721 c 4.398,5.509 12.38,6.402 18.471,6.402 h 27.287 l 2.486,6.173 -26.541,-0.017 c -13.327,0 -32.723,-2.019 -38.062,-16.014 -5.34,-13.997 12.511,-16.014 25.84,-16.014 l 27.511,-0.005 9.645,6.672 h 34.487 l 3.271,-6.672 h 15.717 z"/>
  </g>
</svg>