<?xml version="1.0" encoding="UTF-8" standalone="no"?>
<!DOCTYPE svg PUBLIC "-//W3C//DTD SVG 1.1//EN" "http://www.w3.org/Graphics/SVG/1.1/DTD/svg11.dtd">
<svg width="100%" height="100%" viewBox="0 0 800 285" version="1.1" xmlns="http://www.w3.org/2000/svg" xmlns:xlink="http://www.w3.org/1999/xlink" xml:space="preserve" xmlns:serif="http://www.serif.com/" style="fill-rule:evenodd;clip-rule:evenodd;stroke-linejoin:round;stroke-miterlimit:1.41421;">
    <g id="Artboard1" transform="matrix(1,0,0,0.475,0,0)">
        <rect x="0" y="0" width="800" height="600" style="fill:none;"/>
        <g transform="matrix(1.14144,0,0,2.40303,-1091.83,-3812.73)">
            <g transform="matrix(0.558879,0,0,0.558879,770.268,1494.43)">
                <path d="M799.667,470.098C798.384,470.283 797.994,471.055 798.498,472.416C800.864,473.784 804.38,477.109 809.044,482.39C813.604,487.46 823.315,498.945 838.176,516.847C840.459,521.776 841.867,525.79 842.4,528.888C843.762,534.898 842.188,542.215 837.679,550.837C832.465,560.491 826.033,568.445 818.382,574.699C810.967,580.698 802.276,585.193 792.309,588.186C783.722,590.607 776.343,590.644 770.17,588.296C765.1,586.42 759.416,582.352 753.12,576.094L747.728,570.657L719.835,536.179C718.894,535.272 718.043,535.469 717.28,536.769C717.18,537.276 717.308,537.725 717.663,538.116L745.556,572.595C749.146,576.311 752.014,579.139 754.159,581.079C762.557,588.978 770.878,592.926 779.124,592.925C792.85,592.764 806.697,587.318 820.664,576.587C833.92,564.795 842.138,552.023 845.318,538.27C846.637,531.915 845.084,524.259 840.657,515.301C824.995,496.406 814.832,484.404 810.169,479.294C805.185,473.748 801.708,470.683 799.74,470.099" style="fill:rgb(41,38,39);fill-rule:nonzero;stroke:rgb(41,38,39);stroke-width:1.31px;"/>
            </g>
            <g transform="matrix(0.558879,0,0,0.558879,770.268,1494.43)">
                <path d="M775.777,439.943C762.486,439.941 747.682,445.336 731.363,456.126C716.95,465.978 706.705,477.685 700.628,491.245C694.336,506.013 693.793,519.947 698.997,533.047C702.481,542.322 711.859,548.091 727.128,550.352C728.698,549.946 728.945,549.047 727.87,547.655C718.227,545.759 711.794,543.466 708.571,540.777C705.449,538.513 703.007,535.224 701.245,530.911C696.817,518.89 697.495,506.065 703.279,492.437C708.419,480.859 716.91,470.573 728.754,461.578C742.151,451.701 755.249,445.661 768.045,443.458C780.435,441.777 790.218,443.864 797.392,449.718C800.247,452.176 802.32,455.442 803.613,459.515C805.366,466.103 805.29,471.46 803.384,475.586C803.899,476.764 804.644,477.088 805.619,476.555C807.612,473.642 808.228,469.326 807.467,463.609C806.719,458.294 804.904,453.871 802.02,450.342C796.22,443.588 787.503,440.122 775.867,439.943" style="fill:rgb(41,38,39);fill-rule:nonzero;stroke:rgb(41,38,39);stroke-width:1.31px;"/>
            </g>
            <g transform="matrix(0.558879,0,0,0.558879,770.268,1494.43)">
                <path d="M773.035,462.864C754.99,462.878 739.296,472.226 725.951,490.906C720.719,498.286 717.684,505.4 716.846,512.248C716.341,516.103 716.409,520.634 717.049,525.841C717.335,528.327 717.931,532.05 718.837,537.01C718.979,537.555 719.35,537.847 719.951,537.887C720.687,537.768 721.046,537.36 721.028,536.663C719.321,527.63 718.56,520.982 718.744,516.72C718.798,512.885 719.452,509.139 720.707,505.482C723.893,496.451 730.423,487.329 740.296,478.116C748.099,471.087 756.979,466.885 766.935,465.51C771.358,464.907 775.566,464.946 779.557,465.628C783.453,466.208 788.704,467.957 795.31,470.877C795.769,470.961 796.144,470.833 796.433,470.493C796.823,469.73 796.707,469.169 796.083,468.812C792.071,467.067 788.961,465.846 786.755,465.147C782.147,463.62 777.594,462.859 773.097,462.864" style="fill:rgb(41,38,39);fill-rule:nonzero;stroke:rgb(41,38,39);stroke-width:1.31px;"/>
            </g>
            <g transform="matrix(0.558879,0,0,0.558879,770.268,1494.43)">
                <path d="M790.402,472.448C783.252,472.52 774.957,474.447 765.514,478.229C758.43,481.105 751.954,485.318 746.086,490.868C737.641,498.964 731.507,506.678 727.683,514.011C726.045,517.236 724.96,520.655 724.427,524.267C724.117,526.278 723.944,529.01 723.91,532.463C723.972,533.041 724.282,533.355 724.838,533.408C725.403,533.335 725.72,533.071 725.79,532.614C725.815,527.715 726.215,523.887 726.99,521.13C727.658,518.575 728.681,516.05 730.06,513.554C734.029,506.569 739.811,499.46 747.405,492.226C754.446,485.465 762.976,480.561 772.996,477.512C778.302,475.838 783.112,474.82 787.428,474.458C789.372,474.311 791.228,474.302 792.994,474.432C794.822,474.549 797.201,474.889 800.129,475.453C800.337,475.487 800.531,475.46 800.71,475.372C801.484,474.697 801.412,474.106 800.494,473.596C796.538,472.811 793.204,472.429 790.494,472.448" style="fill:rgb(41,38,39);fill-rule:nonzero;stroke:rgb(41,38,39);stroke-width:1.31px;"/>
            </g>
            <g transform="matrix(0.558879,0,0,0.558879,770.268,1494.43)">
                <path d="M792.88,478.814C785.065,478.624 777.394,480.379 769.868,484.08C759.441,488.989 751.22,494.696 745.205,501.2C739.418,507.558 734.749,515.633 731.196,525.427C729.527,530.103 728.439,534.586 727.932,538.877C727.653,541.031 727.478,543.979 727.406,547.72C727.458,548.254 727.785,548.551 728.387,548.611C728.838,548.598 729.139,548.326 729.288,547.795C729.35,542.311 729.824,537.661 730.711,533.846C731.435,530.578 732.518,527.114 733.959,523.451C737.372,514.929 741.603,507.919 746.653,502.422C753.885,494.694 763.944,488.302 776.829,483.245C780.767,481.857 784.754,481.051 788.79,480.827C791.513,480.548 797.545,480.714 806.886,481.326C807.64,480.658 807.576,480.071 806.694,479.562C800.667,479.047 796.09,478.798 792.963,478.815" style="fill:rgb(41,38,39);fill-rule:nonzero;stroke:rgb(41,38,39);stroke-width:1.31px;"/>
            </g>
            <g transform="matrix(0.558879,0,0,0.558879,770.268,1494.43)">
                <path d="M804.106,483.39C792.927,483.613 783.495,485.552 775.809,489.206C767.097,493.49 758.241,500.201 749.241,509.34C742.316,516.733 737.581,524.643 735.036,533.07C733.892,536.883 733.338,540.963 733.375,545.31C733.364,547.817 733.637,551.45 734.195,556.21C734.366,556.779 734.684,557.055 735.15,557.036C735.616,557.035 735.926,556.753 736.078,556.192C735.285,549.553 735.068,544.529 735.429,541.122C735.695,538.048 736.327,535.04 737.326,532.096C739.921,524.465 744.349,517.316 750.609,510.648C761.227,500.028 770.974,492.985 779.851,489.52C791.169,485.57 802.45,484.405 813.695,486.026C814.384,485.246 814.301,484.666 813.447,484.286C810.101,483.663 806.994,483.364 804.125,483.39" style="fill:rgb(41,38,39);fill-rule:nonzero;stroke:rgb(41,38,39);stroke-width:1.31px;"/>
            </g>
            <g transform="matrix(0.558879,0,0,0.558879,770.268,1494.43)">
                <path d="M810.531,489.808C799.309,489.993 789.853,491.774 782.161,495.151C775.183,497.785 767.624,503.102 759.484,511.102C749.371,521.329 742.931,530.318 740.163,538.07C738.701,541.839 737.912,546.011 737.795,550.586C737.679,553.713 737.92,558.202 738.517,564.053C738.608,564.495 738.89,564.757 739.363,564.839C739.997,564.81 740.341,564.504 740.396,563.923C739.607,556.268 739.451,550.658 739.927,547.093C740.265,543.914 741.087,540.737 742.394,537.562C745.2,530.419 751.372,522.013 760.913,512.345C769.495,503.765 778.043,498.151 786.556,495.503C795.472,492.305 806.364,491.207 819.231,492.209C819.957,491.44 819.89,490.854 819.029,490.452L810.671,489.811" style="fill:rgb(41,38,39);fill-rule:nonzero;stroke:rgb(41,38,39);stroke-width:1.31px;"/>
            </g>
            <g transform="matrix(0.558879,0,0,0.558879,770.268,1494.43)">
                <path d="M807.787,497.802C798.367,497.701 790.335,499.524 783.689,503.269C775.953,507.589 767.417,514.845 758.08,525.039C751.881,532.124 747.699,539.344 745.534,546.698C744.478,550.221 743.904,554.27 743.812,558.845C743.745,561.243 743.828,564.673 744.06,569.135C744.202,569.691 744.511,569.972 744.987,569.98C745.466,569.985 745.783,569.711 745.939,569.158C745.23,558.718 745.851,550.925 747.802,545.779C749.971,539.234 753.881,532.725 759.534,526.252C771.181,513.618 781.243,505.72 789.718,502.557C793.997,500.933 798.799,500.006 804.123,499.777C806.623,499.66 809.341,499.667 812.277,499.8C815.315,499.919 819.861,500.3 825.915,500.942C826.145,500.956 826.348,500.901 826.525,500.779C827.152,499.968 827.026,499.396 826.147,499.065C818.154,498.194 812.085,497.772 807.942,497.802" style="fill:rgb(41,38,39);fill-rule:nonzero;stroke:rgb(41,38,39);stroke-width:1.31px;"/>
            </g>
            <g transform="matrix(0.558879,0,0,0.558879,770.268,1494.43)">
                <path d="M814.479,505.101C806.588,504.919 798.102,507.233 789.021,512.044C779.501,517.18 771.359,523.696 764.594,531.591C757.07,540.508 752.305,548.577 750.299,555.799C749.378,559.128 749.099,562.682 749.462,566.46C749.659,568.868 750.288,572.258 751.348,576.63C751.452,577.059 751.755,577.304 752.256,577.365C752.891,577.274 753.211,576.949 753.216,576.39C751.771,570.473 751.1,565.999 751.203,562.969C751.225,560.325 751.642,557.724 752.454,555.166C754.58,548.482 759.107,541.033 766.033,532.82C775.195,522.277 786.126,514.585 798.825,509.743C803.673,507.988 808.516,507.075 813.356,507.005C815.742,506.957 818.23,507.067 820.82,507.333L833.096,509.006C833.89,508.285 833.793,507.689 832.806,507.216C824.934,505.756 818.846,505.051 814.541,505.101" style="fill:rgb(41,38,39);fill-rule:nonzero;stroke:rgb(41,38,39);stroke-width:1.31px;"/>
            </g>
            <g transform="matrix(0.558879,0,0,0.558879,770.268,1494.43)">
                <path d="M819.118,521.971C809.715,521.942 800.52,524.825 791.533,530.621C781.176,537.413 773.747,545.214 769.245,554.024C764.313,564.24 762.988,572.819 765.27,579.762C766.92,584.856 773.08,588.608 783.75,591.017C784.796,590.748 784.975,590.167 784.286,589.274C775.756,587.118 770.517,584.612 768.57,581.754C766.329,578.97 765.58,574.747 766.324,569.085C768.56,554.707 777.029,542.596 791.732,532.752C798.481,528.249 805.347,525.459 812.328,524.382C820.39,523.266 827.099,523.98 832.455,526.525C836.038,528.335 838.036,531.025 838.451,534.596C839.173,538.27 838.037,545.137 835.044,555.199C835.325,556.35 835.925,556.51 836.845,555.678C840.883,542.807 841.602,534.288 839.003,530.121C836.058,524.891 829.456,522.174 819.198,521.971" style="fill:rgb(41,38,39);fill-rule:nonzero;stroke:rgb(41,38,39);stroke-width:1.31px;"/>
            </g>
            <g transform="matrix(0.558879,0,0,0.558879,770.268,1494.43)">
                <path d="M808.394,542.738C811.513,542.776 813.767,543.999 815.154,546.409C816.474,548.929 816.564,551.92 815.425,555.381C814.198,558.853 812.073,561.831 809.051,564.315C805.975,566.754 802.882,567.998 799.773,568.048C796.72,568.017 794.474,566.779 793.035,564.333C791.721,561.862 791.636,558.888 792.782,555.41C793.992,551.93 796.102,548.942 799.112,546.446C802.145,544.031 805.224,542.795 808.349,542.738M808.391,542.245C805.125,542.29 801.922,543.568 798.783,546.079C795.668,548.669 793.495,551.777 792.265,555.4C791.112,558.979 791.242,562.067 792.655,564.663C794.139,567.178 796.506,568.471 799.757,568.54C803.007,568.493 806.222,567.202 809.402,564.665C812.532,562.069 814.71,558.985 815.935,555.412C817.082,551.789 816.952,548.685 815.544,546.099C814.064,543.581 811.694,542.296 808.435,542.245" style="fill:rgb(41,38,39);fill-rule:nonzero;stroke:rgb(41,38,39);stroke-width:1.31px;"/>
            </g>
            <g transform="matrix(0.558879,0,0,0.558879,770.268,1494.43)">
                <path d="M697.33,198.028L687.217,198.687L682.771,207.686C682.296,208.597 681.344,209.182 679.914,209.443C657.343,200.3 630.513,198.977 599.424,205.472C486.148,232.259 424.564,249.632 414.673,257.591C415.492,255.265 410.826,254.851 400.675,256.347L399.846,288.983L396.058,282.694L376.836,281.224L359.432,288.014C356.986,310.453 379.122,380.818 425.84,499.107C426.067,499.718 426.515,500.062 427.182,500.137L442.397,499.957L447.976,511.511L473.019,508.86L471.982,478.581C482.23,490.685 489.304,507.631 493.204,529.418L505.37,536.506L518.573,529.253C519.073,528.985 519.36,528.592 519.433,528.072L511.013,479.481C523.547,472.52 557.751,465.41 613.626,458.149C618.174,458.297 621.603,459.086 623.916,460.515L641.634,473.607C645.355,475.945 648.877,477.697 652.202,478.863C661.437,482.127 667.799,481.762 671.288,477.771L675.802,481.172C677.533,482.909 678.517,484.314 678.756,485.386C679.722,491.634 680.813,495.773 682.03,497.804C683.145,500.305 685.965,504.67 690.491,510.899C691.547,519.904 692.923,526.11 694.619,529.516C697.256,534.649 700.336,538.546 703.859,541.207C705.244,540.739 705.661,539.979 705.111,538.927C700.75,534.165 698.04,530.33 696.981,527.422C695.607,524.503 694.466,518.738 693.557,510.125C685.586,500.151 681.355,491.019 680.864,482.73C679.508,480.07 676.317,477.229 671.292,474.208C667.461,479.023 660.709,479.346 651.036,475.178C647.748,474.524 639.431,468.888 626.083,458.272C622.621,456.407 619.336,455.405 616.228,455.267C600.081,455.406 569.471,460.643 524.396,470.979C516.574,473.21 511.02,475.663 507.735,478.34L516.261,527.019L505.685,533.286L495.847,527.567C491.995,504.863 483.565,486.344 470.557,472.008C469.046,471.894 468.366,472.486 468.518,473.781L470.1,506.379L449.891,508.458L444.228,497.135L428.232,496.96C383.929,385.08 361.95,316.081 362.295,289.964L376.266,284.379L394.466,285.508L400.088,295.59C400.462,296.165 400.999,296.399 401.7,296.291C402.269,296.38 402.663,295.776 402.883,294.481L403.098,259.035L411.229,258.598C411.649,260.323 412.503,261.197 413.789,261.22C424.552,253.06 482.538,236.333 587.746,211.039C623.375,201.758 654.033,202.23 679.721,212.454C682.957,213.219 686.099,209.572 689.149,201.513L697.151,201.28L701.844,204.823C701.629,211.595 702.876,216.387 705.586,219.198C706.394,220.795 712.569,225.833 724.11,234.311C726.025,235.1 727.251,233.996 727.788,231L735.955,230.669L743.383,235.967C743.517,247.098 745.001,253.637 747.836,255.585C750.157,259.093 760.739,268.131 779.58,282.699C782.281,284.293 784.03,284.819 784.825,284.276C786.789,283.998 788.674,280.742 790.482,274.507L800.501,273.985L808.873,279.791C808.108,286.542 809.484,292.188 813.003,296.73C815.408,299.976 819.591,303.531 825.553,307.396C834.193,312.76 840.243,315.68 843.702,316.156C846.606,316.284 848.23,314.996 848.575,312.293L858.524,311.19L871.346,319.833L875.568,397.535C877.656,405.642 878.769,412.513 878.907,418.148C879.091,427.302 877.662,435.969 874.62,444.148C871.308,453.388 865.707,460.156 857.82,464.454C856.202,466.632 840.656,471.629 811.181,479.445C810.561,479.402 810.155,479.976 809.964,481.167C810.608,482.337 811.256,482.736 811.909,482.364C840.181,474.654 854.391,470.35 854.537,469.45C863.765,465.338 870.246,459.72 873.98,452.598C879.057,443.458 881.711,432.659 881.942,420.2C882.004,413.761 880.869,406.021 878.538,396.98L873.904,317.936L858.804,307.983L845.815,309.696L844.356,313.202C840.746,312.578 835.024,309.802 827.19,304.874C814.804,297.779 809.691,288.939 811.851,278.355L801.487,271.019L788.487,271.747L784.598,280.938C783.646,281.571 782.639,281.389 781.577,280.393C762.663,265.854 752.073,256.796 749.807,253.22C748.573,251.642 747.781,249.94 747.433,248.115L746.002,234.206L737.317,227.623L726.096,228.06L724.016,230.47C714.191,223.234 708.85,218.876 707.993,217.397C705.622,215.377 704.602,210.777 704.933,203.599L697.609,198.055" style="fill:rgb(41,38,39);fill-rule:nonzero;stroke:rgb(41,38,39);stroke-width:1.31px;"/>
            </g>
            <g transform="matrix(0.558879,0,0,0.558879,770.268,1494.43)">
                <path d="M688.085,200.041C687.454,200.23 687.15,200.456 687.171,200.717L684.566,207.496C684.818,208.15 685.366,208.204 686.212,207.66L688.636,202.565L693.368,206.039C690.74,212.594 694.881,221.057 705.79,231.427C711.644,237.478 716.233,240.945 719.555,241.829C723.21,242.782 725.815,239.75 727.369,232.731L734.193,238.098C733.28,247.431 734.878,254.428 738.987,259.088C740.911,261.551 743.82,264.36 747.714,267.517L772.823,286.584C776.329,289.416 779.525,289.979 782.412,288.273C783.671,287.495 784.97,286.353 786.309,284.847L790.589,275.754L799.499,283.023C797.256,295.36 799.632,303.259 806.627,306.72C820.102,314.746 828.853,319.198 832.879,320.076C839.172,322.147 844.238,319.781 848.077,312.978L859.65,321.783C860.301,352.637 860.821,370.791 861.207,376.243C861.927,390.492 863.331,403.878 865.421,416.401C865.581,418.088 865.364,419.634 864.771,421.04C863.976,422.986 861.499,424.776 857.339,426.412L798.223,445.519C797.048,446.01 797.127,446.642 798.46,447.414L856.855,428.632C861.822,426.872 864.974,424.725 866.311,422.193C867.122,420.542 867.462,418.702 867.332,416.674C863.888,399.6 861.969,367.722 861.574,321.038L847.813,310.553C847.562,310.516 847.321,310.583 847.091,310.754C844.697,314.639 842.866,316.908 841.597,317.561C840.006,318.692 838.021,319.088 835.641,318.749C832.016,318.654 822.667,314.1 807.593,305.086C804.066,302.739 801.993,300.22 801.374,297.529C800.547,295.643 800.572,290.544 801.449,282.231L790.37,273.181C789.816,272.979 789.389,273.177 789.087,273.775L784.718,283.773C783.611,284.954 782.722,285.778 782.049,286.247C780.088,288.028 777.482,287.699 774.23,285.258L749.172,266.262C745.525,263.347 742.683,260.638 740.646,258.135C738.587,255.609 737.217,252.846 736.534,249.847C735.844,246.849 735.796,242.853 736.389,237.859C736.368,237.519 736.223,237.258 735.956,237.076L727.269,230.254C727.036,230.131 726.798,230.103 726.554,230.17C726.268,230.255 726.063,230.436 725.937,230.713C724.943,234.794 724.019,237.419 723.167,238.588C722.324,239.844 721.252,240.309 719.951,239.981C717.266,239.253 713.403,236.369 708.362,231.33C701.931,224.899 697.857,219.905 696.14,216.346C694.613,213.509 694.392,209.843 695.476,205.349L688.218,200.05" style="fill:rgb(41,38,39);fill-rule:nonzero;stroke:rgb(41,38,39);stroke-width:1.31px;"/>
            </g>
            <g transform="matrix(0.558879,0,0,0.558879,770.268,1494.43)">
                <path d="M494.727,421.851L481.576,425.347C481.122,425.538 480.911,425.878 480.944,426.364L503.803,533.735C503.887,534.24 504.195,534.524 504.728,534.589C505.411,534.521 505.726,534.138 505.676,533.44L482.998,426.939L494.069,424.03L508.24,478.523C508.48,479.068 508.897,479.26 509.49,479.099C509.97,478.86 510.155,478.478 510.045,477.953L495.631,422.521C495.511,422.127 495.213,421.904 494.737,421.851" style="fill:rgb(41,38,39);fill-rule:nonzero;stroke:rgb(41,38,39);stroke-width:1.31px;"/>
            </g>
            <g transform="matrix(0.558879,0,0,0.558879,770.268,1494.43)">
                <path d="M487.308,410.569L481.839,422.951L476.24,412.767L487.301,410.571M488.909,408.34L474.561,411.171C474.253,411.248 474.032,411.442 473.897,411.755C473.802,411.995 473.815,412.25 473.939,412.522L481.094,425.55C481.272,425.859 481.546,426.024 481.917,426.043C482.315,426.027 482.602,425.848 482.779,425.505L489.787,409.639C489.947,408.891 489.659,408.459 488.924,408.34" style="fill:rgb(41,38,39);fill-rule:nonzero;stroke:rgb(41,38,39);stroke-width:1.31px;"/>
            </g>
            <g transform="matrix(0.558879,0,0,0.558879,770.268,1494.43)">
                <path d="M402.197,257C401.543,257.092 401.231,257.451 401.26,258.077L404.337,263.321C403.934,267.026 404.068,269.953 404.741,272.102L415.287,293.082L417.113,311.675L426.089,328.391C426.278,328.599 426.469,328.714 426.662,328.737L430.517,328.845L434.153,333.638L436.461,349.727L449.797,372.002C450.405,372.586 450.932,372.604 451.377,372.055L453.021,367.839L454.963,370.676L458.181,393.675L472.029,416.107C472.276,416.465 472.556,416.635 472.869,416.614C473.091,416.612 473.29,416.542 473.464,416.404L476.534,413.343C476.771,413.135 476.838,412.807 476.738,412.361C476.258,411.054 475.028,411.651 473.048,414.152L459.922,392.852L456.709,369.857L453.412,365.093C453.222,364.906 453.03,364.804 452.836,364.788C452.362,364.763 452.031,364.947 451.844,365.34L450.406,369.286L450.293,369.146L438.233,349.003L435.823,332.7L431.566,327.148L427.399,326.86L418.977,311.157L417.139,292.59L406.596,271.592C405.945,269.853 405.83,266.938 406.249,262.845L402.988,257.426C402.872,257.212 402.636,257.071 402.282,257.004" style="fill:rgb(41,38,39);fill-rule:nonzero;stroke:rgb(41,38,39);stroke-width:1.31px;"/>
            </g>
            <g transform="matrix(0.558879,0,0,0.558879,770.268,1494.43)">
                <path d="M561.359,224.643C549.543,224.994 539.284,227.984 530.583,233.614C524.513,237.151 517.843,246.642 510.573,262.087C505.136,265.808 500.416,268.455 496.413,270.028C490.191,272.645 482.093,274.495 472.12,275.579C463.299,276.676 447.075,277.597 423.449,278.341C421.947,279.466 422.084,280.385 423.858,281.099C446.982,280.42 463.235,279.502 472.618,278.347C482.845,277.216 491.136,275.307 497.492,272.62C502.157,270.737 507.232,267.856 512.717,263.978C519.369,249.93 525.259,241.026 530.385,237.266C535.818,232.948 543.257,229.93 552.704,228.213C560.855,226.85 568.032,227.329 574.234,229.65C582.109,232.385 590.862,238.395 600.493,247.68C607.758,249.457 613.351,250.523 617.27,250.877C623.748,251.608 630.243,251.194 636.756,249.633C642.713,248.351 651.94,245.097 664.438,239.873C665.192,239.625 665.515,239.048 665.406,238.143C665.018,237.306 664.459,236.974 663.73,237.148C650.484,242.673 640.906,246.008 634.997,247.152C628.758,248.619 621.907,248.8 614.443,247.693C611.214,247.235 606.961,246.359 601.684,245.065C593.494,237.085 585.67,231.462 578.21,228.195C572.713,225.816 567.125,224.632 561.448,224.644" style="fill:rgb(41,38,39);fill-rule:nonzero;stroke:rgb(41,38,39);stroke-width:1.31px;"/>
            </g>
            <g transform="matrix(0.558879,0,0,0.558879,770.268,1494.43)">
                <path d="M417.149,268.773C416.541,268.776 416.265,269.173 416.32,269.961L428.294,292.165L432.435,309.928L437.845,319.174L442.517,321.046L448.151,329.283L452.928,352.218L458.426,362.107L463.164,362.936L469.485,371.586L472.532,388.171L483.981,410.266C484.22,410.573 484.481,410.713 484.767,410.685C485.384,410.659 485.642,410.244 485.539,409.439L474.184,387.518L471.161,370.913L464.283,361.485L459.666,360.708L454.574,351.541L449.812,328.591L443.627,319.577L439.082,317.8L434.083,309.25L429.938,291.492L417.965,269.306C417.746,268.945 417.494,268.768 417.209,268.775" style="fill:rgb(41,38,39);fill-rule:nonzero;stroke:rgb(41,38,39);stroke-width:1.31px;"/>
            </g>
            <g transform="matrix(0.558879,0,0,0.558879,770.268,1494.43)">
                <path d="M640.618,207.931C621.556,208.093 606.397,209.418 595.14,211.907L582.307,215.094L493.099,239.471C460.738,248.441 438.94,255.177 427.703,259.68C417.981,263.457 414.431,266.929 417.051,270.094C417.376,267.479 419.481,265.293 423.365,263.536C427.608,261.369 435.92,258.326 448.3,254.408C464.295,249.04 513.516,235.417 595.965,213.538C609.443,210.735 626.593,209.49 647.416,209.803C653.91,210.019 658.846,210.572 662.222,211.462C663.79,211.849 665.255,212.347 666.615,212.956C667.82,213.455 669.474,214.447 671.578,215.933C671.765,216.035 672,216.041 672.282,215.951L683.857,211.203C684.448,210.597 684.339,210.068 683.531,209.619L672.011,214.095C667.063,209.717 656.646,207.663 640.761,207.931" style="fill:rgb(41,38,39);fill-rule:nonzero;stroke:rgb(41,38,39);stroke-width:1.31px;"/>
            </g>
            <g transform="matrix(0.558879,0,0,0.558879,770.268,1494.43)">
                <path d="M620.753,225.636C617.938,225.618 613.848,225.961 608.484,226.665C602.648,227.397 594.174,228.566 583.062,230.174C582.777,230.226 582.55,230.335 582.38,230.5C581.973,230.928 581.863,231.4 582.049,231.917C582.258,232.422 582.655,232.697 583.242,232.743C604.667,229.674 616.246,228.195 617.978,228.305C623.687,227.958 627.403,228.579 629.124,230.166C630.571,231.474 631.119,233.146 630.768,235.179C630.361,237.076 629.169,238.519 627.193,239.508C625.225,240.528 622.252,241.264 618.274,241.717C613.81,242.236 607.434,242.604 599.146,242.818C598.414,243.042 598.067,243.51 598.104,244.225C598.229,244.943 598.671,245.327 599.432,245.378C609.24,245.151 616.546,244.658 621.348,243.899C625.777,243.163 628.929,241.906 630.805,240.131C633.828,236.887 634.261,233.388 632.105,229.634C630.325,226.903 626.545,225.57 620.764,225.636" style="fill:rgb(41,38,39);fill-rule:nonzero;stroke:rgb(41,38,39);stroke-width:1.31px;"/>
            </g>
            <g transform="matrix(0.558879,0,0,0.558879,770.268,1494.43)">
                <path d="M400.829,293.836C399.765,294.076 399.362,294.658 399.621,295.585C431.142,356.456 450.327,396.344 457.177,415.249C461.084,425.439 463.933,434.719 465.725,443.087C467.674,451.844 468.658,461.889 468.679,473.223C468.81,473.995 469.224,474.406 469.918,474.457C470.615,474.43 471.053,474.089 471.233,473.436L471.195,469.945C471.038,461.484 470.407,454.171 469.304,448.005C467.632,438.097 464.415,426.923 459.65,414.484C454.886,401.961 447.296,385.008 436.878,363.625C429.968,349.342 418.343,326.33 402.005,294.588C401.88,294.22 401.525,293.971 400.938,293.841" style="fill:rgb(41,38,39);fill-rule:nonzero;stroke:rgb(41,38,39);stroke-width:1.31px;"/>
            </g>
            <g transform="matrix(0.558879,0,0,0.558879,770.268,1494.43)">
                <path d="M361.378,290.428C361.019,290.4 360.926,290.673 361.097,291.247L417.632,446.743L437.977,448.734L421.657,457.842C421.336,458.049 421.249,458.278 421.397,458.529L426.565,479.214L445.475,480.241L428.228,487.03C427.944,487.448 427.988,487.7 428.359,487.784L447.783,480.128C447.944,479.906 447.862,479.699 447.539,479.505L427.059,478.218L422.27,458.429L439.593,448.822C439.742,448.784 439.818,448.631 439.821,448.361L418.297,446.2L362.302,292.19C361.863,290.793 361.581,290.208 361.456,290.436" style="fill:rgb(41,38,39);fill-rule:nonzero;stroke:rgb(41,38,39);stroke-width:1.31px;"/>
            </g>
            <g transform="matrix(0.558879,0,0,0.558879,770.268,1494.43)">
                <path d="M361.476,287.96C360.713,288.064 360.438,288.524 360.65,289.339L416.261,444.576C416.359,444.928 416.645,445.141 417.117,445.215C417.873,445.137 418.162,444.694 417.987,443.886L362.376,288.649C362.289,288.28 362.006,288.051 361.529,287.962" style="fill:rgb(41,38,39);fill-rule:nonzero;stroke:rgb(41,38,39);stroke-width:1.31px;"/>
            </g>
            <g transform="matrix(0.558879,0,0,0.558879,770.268,1494.43)">
                <path d="M516.974,318.167C507.185,318.058 491.047,319.462 468.558,322.377C466.984,323.131 466.716,324.12 467.756,325.345C468.228,325.656 468.615,325.782 468.916,325.724C483.727,323.86 494.773,322.67 502.056,322.155C508.459,321.678 514.094,321.476 518.963,321.549C529.416,321.634 537.891,323.254 544.388,326.411C549.128,328.568 554,331.967 559.003,336.609L564.318,341.707L579.689,358.746C590.825,371.534 595.67,380.092 594.225,384.419C593.947,387.218 590.894,390.346 585.066,393.804L496.311,414.989C495.473,415.26 495.058,415.857 495.066,416.78C495.254,417.744 495.818,418.252 496.758,418.304L586.27,396.98C593.129,393.141 596.893,389.155 597.562,385.022C598.709,380.7 596.212,374.444 590.069,366.253C576.41,349.393 565.673,337.683 557.856,331.123C547.422,321.995 533.82,317.677 517.048,318.167" style="fill:rgb(41,38,39);fill-rule:nonzero;stroke:rgb(41,38,39);stroke-width:1.31px;"/>
            </g>
            <g transform="matrix(0.558879,0,0,0.558879,770.268,1494.43)">
                <path d="M624.168,285.509C622.779,285.771 622.266,286.561 622.629,287.88L628.762,296.587C641.772,311.923 652.189,322.641 660.013,328.74C664.435,332.316 669.353,335.554 674.769,338.455C677.769,340.072 681.133,341.692 684.86,343.315L705.757,351.934C707.512,352.814 708.965,353.651 710.113,354.445C711.511,355.375 713.039,356.693 714.699,358.397C714.862,358.581 715.221,358.698 715.776,358.748C761.845,355.089 790.031,352.515 800.335,351.024C805.464,350.378 811.415,349.496 818.189,348.379C819.61,347.612 819.85,346.648 818.908,345.488C818.51,345.149 818.059,345.01 817.555,345.073C806.1,347.028 792.745,348.713 777.49,350.127C760.408,351.725 740.018,353.44 716.319,355.27C714.175,353.046 711.492,351.101 708.269,349.434C707.882,348.926 700.884,346.01 687.275,340.685C684.742,339.606 682.317,338.496 680,337.357C674.001,334.401 668.738,331.195 664.211,327.738C653.855,320.043 640.578,305.971 624.378,285.522" style="fill:rgb(41,38,39);fill-rule:nonzero;stroke:rgb(41,38,39);stroke-width:1.31px;"/>
            </g>
            <g transform="matrix(0.558879,0,0,0.558879,770.268,1494.43)">
                <path d="M693.517,273.335C687.13,274.754 680.106,276.762 672.443,279.358C665.489,281.673 652.035,286.548 632.083,293.982C631.363,294.304 631.035,294.865 631.101,295.665C631.281,296.448 631.76,296.884 632.537,296.975C632.805,296.981 633.027,296.946 633.203,296.868C652.917,289.52 666.374,284.646 673.571,282.245C680.383,279.926 687.219,277.953 694.08,276.325C694.798,275.988 695.12,275.426 695.044,274.638C694.863,273.856 694.377,273.422 693.583,273.337" style="fill:rgb(41,38,39);fill-rule:nonzero;stroke:rgb(41,38,39);stroke-width:1.31px;"/>
            </g>
            <g transform="matrix(0.558879,0,0,0.558879,770.268,1494.43)">
                <path d="M674.136,278.618C673.19,278.657 672.676,279.221 672.593,280.312L675.351,293.942C675.409,294.249 675.545,294.515 675.759,294.74L683.56,301.178C684.004,301.307 684.35,301.316 684.6,301.205L692.46,298.527L703.02,306.072L707.225,323.061C707.25,323.221 707.375,323.437 707.602,323.709L715.733,329.476C715.854,329.585 716.088,329.674 716.435,329.742C717.01,329.755 717.428,329.616 717.687,329.323L721.882,324.911L740.904,343.039L742.198,351.24L746.997,355.606C747.185,355.807 747.509,355.933 747.967,355.985C749.072,355.926 749.585,355.275 749.505,354.03L749.138,353.376L744.996,349.644L743.883,342.018C743.829,341.711 743.696,341.443 743.484,341.215L722.448,321.258C721.841,320.973 721.272,321.034 720.74,321.439L716.441,326.106L710.157,321.755L705.675,304.231L693.676,295.571C693.511,295.447 693.331,295.358 693.135,295.305C692.835,295.225 692.536,295.235 692.239,295.332L684.392,297.944L678.277,292.793L675.628,279.759C675.475,279.127 674.994,278.747 674.184,278.619" style="fill:rgb(41,38,39);fill-rule:nonzero;stroke:rgb(41,38,39);stroke-width:1.31px;"/>
            </g>
            <g transform="matrix(0.558879,0,0,0.558879,770.268,1494.43)">
                <path d="M724.878,325.825L717.368,326.345C717.166,326.365 716.984,326.417 716.821,326.499C716.141,326.891 715.867,327.473 716.001,328.242C716.085,328.589 716.267,328.875 716.546,329.1C716.835,329.323 717.155,329.434 717.508,329.435L724.997,328.916C725.202,328.898 725.387,328.848 725.551,328.766C726.233,328.382 726.511,327.803 726.386,327.03C726.304,326.685 726.127,326.398 725.852,326.172C725.579,325.95 725.26,325.835 724.894,325.825" style="fill:rgb(41,38,39);fill-rule:nonzero;stroke:rgb(41,38,39);stroke-width:1.31px;"/>
            </g>
            <g transform="matrix(0.558879,0,0,0.558879,770.268,1494.43)">
                <path d="M739.795,415.579C726.325,415.597 712.596,421.458 698.606,433.163C693.365,437.701 689.137,442.986 685.922,449.019C683.617,453.194 681.106,459.335 678.389,467.444C678.236,468.231 678.56,468.696 679.361,468.84C679.797,468.844 680.127,468.633 680.351,468.206C683.301,459.384 686.047,452.835 688.589,448.557C691.112,444.143 694.215,440.182 697.901,436.675C708.639,426.827 719.974,420.729 731.906,418.382C737.083,417.468 742.285,417.454 747.511,418.34C752.134,419.061 758.21,420.941 765.736,423.98L796.857,448.102C797.325,448.441 797.782,448.445 798.226,448.112C798.737,447.554 798.727,447.008 798.195,446.475L766.845,422.156C755.964,417.61 746.961,415.418 739.837,415.579" style="fill:rgb(41,38,39);fill-rule:nonzero;stroke:rgb(41,38,39);stroke-width:1.31px;"/>
            </g>
            <g transform="matrix(0.558879,0,0,0.558879,770.268,1494.43)">
                <path d="M700.85,380.102C682.781,380.37 668.055,389.362 656.67,407.078C650.605,416.593 647.064,425.272 646.045,433.116C645.518,437.224 645.618,441.424 646.346,445.715C646.763,448.428 647.715,452.29 649.201,457.303C649.327,457.756 649.642,458.021 650.144,458.098C650.957,458.013 651.329,457.597 651.259,456.852C648.846,449.033 647.699,442.793 647.818,438.134C647.825,433.745 648.634,429.245 650.243,424.634C655.366,411.06 662.906,400.165 672.864,391.95C681.931,384.993 692.088,381.77 703.333,382.282C708.113,382.571 712.517,383.652 716.546,385.525C720.41,387.219 724.728,390.616 729.5,395.715C730.104,395.985 730.586,395.858 730.948,395.332C731.157,394.931 731.132,394.543 730.872,394.167C728.874,392.084 727.274,390.509 726.069,389.444C723.579,387.196 720.987,385.393 718.296,384.034C713.116,381.45 707.347,380.139 700.989,380.103" style="fill:rgb(41,38,39);fill-rule:nonzero;stroke:rgb(41,38,39);stroke-width:1.31px;"/>
            </g>
            <g transform="matrix(0.558879,0,0,0.558879,770.268,1494.43)">
                <path d="M705.936,367.484C696.843,367.572 687.27,369.843 677.217,374.297C667.182,378.811 658.675,384.586 651.698,391.623C645.642,397.779 641.442,404.49 639.098,411.754C637.599,416.24 636.493,421.516 635.78,427.582L634.758,438.226C634.816,438.787 635.145,439.118 635.745,439.218C636.384,439.181 636.754,438.875 636.854,438.299C637.697,426.7 639.083,418.156 641.013,412.667C642.816,407.045 645.685,401.85 649.621,397.083C660.093,384.895 673.991,376.393 691.314,371.577C706.324,367.6 719.377,369.566 730.474,377.474C736.545,381.915 741.159,387.378 744.314,393.861C747.354,399.721 747.46,405.229 744.632,410.385C744.917,411.321 745.514,411.529 746.422,411.009C751.283,403.389 748.694,393.689 738.652,381.906C729.59,372.44 718.753,367.633 706.14,367.484" style="fill:rgb(41,38,39);fill-rule:nonzero;stroke:rgb(41,38,39);stroke-width:1.31px;"/>
            </g>
            <g transform="matrix(0.558879,0,0,0.558879,770.268,1494.43)">
                <path d="M739.971,406.345C739.553,406.352 739.237,406.552 739.021,406.944C738.851,407.358 738.896,407.731 739.153,408.062L748.758,417.963C748.947,418.154 749.191,418.257 749.488,418.269C749.932,418.251 750.251,418.055 750.446,417.681C750.62,417.269 750.58,416.896 750.326,416.562L740.706,406.643C740.515,406.454 740.27,406.354 739.973,406.345" style="fill:rgb(41,38,39);fill-rule:nonzero;stroke:rgb(41,38,39);stroke-width:1.31px;"/>
            </g>
            <g transform="matrix(0.558879,0,0,0.558879,770.268,1494.43)">
                <path d="M813.34,404.911C813.191,404.9 812.997,404.944 812.758,405.042L803.773,409.068C797.982,412.279 793.14,414.589 789.249,415.999C785.158,417.586 777.882,419.585 767.42,421.998C766.588,422.456 766.364,423.108 766.747,423.954C767.082,424.473 767.567,424.684 768.201,424.589C777.75,422.394 784.577,420.56 788.683,419.088C791.019,418.275 793.356,417.332 795.694,416.256C798.011,415.205 801.069,413.637 804.868,411.553L813.279,407.784C820.156,411.19 824.257,414.022 825.583,416.281C826.251,417.26 826.626,418.463 826.709,419.889L826.655,422.07L826.002,427.749C825.97,428.791 826.095,429.741 826.379,430.601C827.163,432.982 829.138,435.035 832.304,436.759C833.447,436.619 833.871,435.968 833.576,434.805C833.476,434.618 833.371,434.48 833.263,434.392C831.617,433.192 830.538,432.27 830.027,431.625C829.377,430.851 828.974,430.049 828.819,429.217C828.716,428.735 828.688,428.135 828.735,427.417C829.333,423.222 829.563,420.714 829.426,419.892C829.332,418.06 828.894,416.499 828.112,415.209C826.378,412.084 821.486,408.653 813.434,404.914" style="fill:rgb(41,38,39);fill-rule:nonzero;stroke:rgb(41,38,39);stroke-width:1.31px;"/>
            </g>
            <g transform="matrix(0.558879,0,0,0.558879,770.268,1494.43)">
                <path d="M797.625,385.416C795.791,385.416 793.704,385.646 791.364,386.104C789.998,386.36 787.949,386.835 785.216,387.53L747.936,395.03C747.361,395.194 747.082,395.584 747.1,396.2C747.229,396.802 747.596,397.113 748.203,397.133L785.614,389.62C788.308,388.941 790.302,388.476 791.598,388.227C793.454,387.856 795.14,387.634 796.657,387.563C799.166,387.434 801.472,387.801 803.573,388.666C805.622,389.416 808.546,391.174 812.345,393.941C812.523,394.065 812.773,394.106 813.097,394.065C813.97,393.705 814.158,393.116 813.661,392.299C811.224,390.498 809.159,389.126 807.466,388.182C804.143,386.284 800.869,385.362 797.643,385.416" style="fill:rgb(41,38,39);fill-rule:nonzero;stroke:rgb(41,38,39);stroke-width:1.31px;"/>
            </g>
            <g transform="matrix(0.558879,0,0,0.558879,770.268,1494.43)">
                <path d="M743.275,287.975C746.959,289.645 751.985,293.075 758.354,298.264C763.074,302.204 766.102,305.487 767.437,308.114C768.21,309.574 768.646,311.259 768.745,313.17C768.88,313.917 768.713,317.23 768.245,323.108C767.78,328.572 766.809,331.202 765.331,330.996C763.917,331.342 758.856,328.103 750.148,321.279C744.754,317.096 741.557,313.889 740.559,311.658C739.853,310.309 739.514,308.811 739.541,307.162C739.54,306.738 739.575,306.063 739.646,305.137L740.629,294.89C741.122,290.326 741.984,288.021 743.215,287.977M743.241,285.853C740.998,285.893 739.55,287.918 738.897,291.926C738.721,292.049 738.228,297.043 737.418,306.91C737.37,308.913 737.724,310.693 738.481,312.249C739.568,314.935 743.145,318.601 749.212,323.247C755.824,328.282 759.467,330.918 760.14,331.158C762.26,332.461 763.988,333.109 765.325,333.103C767.742,333.214 769.29,331.044 769.968,326.594C770.359,324.509 770.669,320.259 770.899,313.843C770.877,311.546 770.436,309.481 769.577,307.65C768.209,304.61 764.835,300.864 759.453,296.411C755.868,293.467 752.397,290.907 749.042,288.732L745.277,286.384C744.575,286.036 743.902,285.859 743.257,285.853" style="fill:rgb(41,38,39);fill-rule:nonzero;stroke:rgb(41,38,39);stroke-width:1.31px;"/>
            </g>
            <g transform="matrix(0.558879,0,0,0.558879,770.268,1494.43)">
                <path d="M736.968,227.858C734.783,227.862 731.974,228.133 728.54,228.673C727.766,229.481 727.736,230.106 728.45,230.549C734.54,229.988 738.075,229.839 739.056,230.1C740.998,230.321 743.141,231.144 745.486,232.568L872.77,319.132C874.881,320.553 876.758,322.257 878.404,324.244C880.161,326.319 882.545,329.78 885.556,334.627L886.031,344.412L876.234,349.42C875.855,349.805 875.696,350.076 875.756,350.233L876.115,351.11L884.609,357.068L884.609,373.102L875.096,377.102C874.643,377.396 874.43,377.624 874.454,377.787C874.339,378.27 874.469,378.66 874.843,378.956L879.762,381.812C880.354,382.525 880.765,383.273 880.997,384.058C881.599,385.325 880.267,388.699 876.999,394.179C876.996,394.977 877.388,395.382 878.176,395.393C884.985,386.954 884.904,381.238 877.933,378.245L886.107,374.922C886.533,374.712 886.742,374.36 886.736,373.867L886.668,355.874L878.963,350.426L887.723,346.039C888.097,345.649 888.254,345.377 888.192,345.221L887.673,334.102C884.67,329.113 882.124,325.372 880.037,322.881C878.472,320.948 876.522,319.163 874.186,317.524L746.9,230.95C743.346,228.739 740.096,227.708 737.15,227.859" style="fill:rgb(41,38,39);fill-rule:nonzero;stroke:rgb(41,38,39);stroke-width:1.31px;"/>
            </g>
            <g transform="matrix(0.558879,0,0,0.558879,770.268,1494.43)">
                <path d="M876.525,356.046C876.226,356.052 875.974,356.156 875.77,356.36C875.567,356.569 875.464,356.821 875.461,357.117C875.466,357.408 875.573,357.659 875.782,357.87C875.992,358.071 876.245,358.172 876.541,358.173L885.406,358.173C885.448,358.173 885.49,358.171 885.529,358.167C886.115,358.056 886.431,357.704 886.478,357.111C886.431,356.514 886.115,356.161 885.53,356.052C885.49,356.047 885.449,356.045 885.406,356.046L876.542,356.046" style="fill:rgb(41,38,39);fill-rule:nonzero;stroke:rgb(41,38,39);stroke-width:1.31px;"/>
            </g>
            <g transform="matrix(0.558879,0,0,0.558879,770.268,1494.43)">
                <path d="M872.343,318.834C872.292,318.834 872.245,318.839 872.202,318.846L861.329,320.744C861.208,320.764 861.136,320.779 861.113,320.789C860.703,320.953 860.516,321.254 860.551,321.693C860.646,322.12 860.912,322.352 861.351,322.39C861.395,322.392 861.45,322.387 861.515,322.376L872.472,320.464C872.508,320.458 872.551,320.448 872.601,320.432C873.004,320.265 873.188,319.966 873.153,319.534C873.059,319.108 872.795,318.875 872.362,318.834" style="fill:rgb(41,38,39);fill-rule:nonzero;stroke:rgb(41,38,39);stroke-width:1.31px;"/>
            </g>
            <g transform="matrix(0.558879,0,0,0.558879,770.268,1494.43)">
                <path d="M810.136,279.448C810.096,279.447 810.046,279.452 809.986,279.462L800.18,281.288C800.109,281.3 800.057,281.313 800.024,281.326C799.625,281.495 799.444,281.795 799.481,282.227C799.574,282.647 799.837,282.878 800.272,282.921C800.334,282.922 800.392,282.917 800.444,282.906L810.25,281.08C810.297,281.074 810.349,281.061 810.405,281.042C810.802,280.873 810.982,280.572 810.945,280.141C810.852,279.72 810.587,279.489 810.149,279.448" style="fill:rgb(41,38,39);fill-rule:nonzero;stroke:rgb(41,38,39);stroke-width:1.31px;"/>
            </g>
            <g transform="matrix(0.558879,0,0,0.558879,770.268,1494.43)">
                <path d="M744.515,235.69L735.85,236.454C735.786,236.46 735.734,236.469 735.692,236.482C735.268,236.635 735.071,236.937 735.101,237.386C735.197,237.825 735.468,238.06 735.915,238.091L744.561,237.328C744.621,237.325 744.679,237.315 744.737,237.299C745.155,237.148 745.352,236.85 745.327,236.404C745.238,235.968 744.972,235.73 744.529,235.69" style="fill:rgb(41,38,39);fill-rule:nonzero;stroke:rgb(41,38,39);stroke-width:1.31px;"/>
            </g>
            <g transform="matrix(0.558879,0,0,0.558879,770.268,1494.43)">
                <path d="M702.817,204.923L694.218,205.161C694.168,205.163 694.12,205.169 694.072,205.179C693.629,205.312 693.415,205.608 693.429,206.066C693.453,206.272 693.541,206.446 693.693,206.587C693.85,206.727 694.032,206.798 694.239,206.8L702.838,206.562C702.888,206.561 702.937,206.555 702.986,206.545C703.427,206.415 703.642,206.12 703.632,205.661C703.611,205.456 703.523,205.281 703.369,205.137C703.212,204.997 703.03,204.926 702.826,204.923" style="fill:rgb(41,38,39);fill-rule:nonzero;stroke:rgb(41,38,39);stroke-width:1.31px;"/>
            </g>
            <g transform="matrix(0.558879,0,0,0.558879,770.268,1494.43)">
                <path d="M459.067,317.886L443.404,318.597C443.046,318.617 442.797,318.824 442.655,319.215C442.567,319.782 442.829,320.122 443.442,320.235L458.995,319.542C462.012,320.445 464.08,321.276 465.198,322.033C466.544,322.884 467.448,323.959 467.907,325.258C468.552,326.758 468.822,329.583 468.72,333.734C468.189,334.905 467.648,335.867 467.094,336.618C466.107,337.994 464.64,339.175 462.692,340.163C461.074,341.059 457.649,342.426 452.419,344.264C452.091,344.52 451.972,344.821 452.063,345.166C452.155,345.513 452.407,345.717 452.819,345.777C458.913,343.787 463.053,342.053 465.238,340.574C467.407,339.218 469.106,337.075 470.336,334.145C470.585,328.585 469.991,324.859 468.554,322.966C467.255,320.905 464.103,319.211 459.097,317.886" style="fill:rgb(41,38,39);fill-rule:nonzero;stroke:rgb(41,38,39);stroke-width:1.31px;"/>
            </g>
            <g transform="matrix(0.558879,0,0,0.558879,770.268,1494.43)">
                <path d="M491.293,382.695L474.763,383.773C474.033,384.079 473.895,384.551 474.35,385.188C474.51,385.337 474.713,385.408 474.957,385.399L491.282,384.335C495.503,384.394 498.451,384.768 500.125,385.458C502.342,386.19 504.394,388.243 506.281,391.618L507.349,393.519C507.328,395.267 507.278,396.604 507.198,397.531C506.961,400.954 505.964,403.225 504.207,404.344C503.176,405.123 501.539,405.862 499.295,406.56L496.922,407.266L488.619,409.265C488.252,409.456 488.097,409.761 488.154,410.18C488.295,410.608 488.561,410.826 488.953,410.832C497.834,408.948 503.111,407.316 504.783,405.936C507.227,404.471 508.578,401.71 508.836,397.652C508.981,395.388 509.013,393.833 508.931,392.987C507.049,389.407 505.327,386.985 503.764,385.721C501.694,383.685 497.548,382.676 491.327,382.696" style="fill:rgb(41,38,39);fill-rule:nonzero;stroke:rgb(41,38,39);stroke-width:1.31px;"/>
            </g>
            <g transform="matrix(0.558879,0,0,0.558879,770.268,1494.43)">
                <path d="M492.383,413.367C491.775,413.394 491.345,413.685 491.093,414.24C490.891,414.808 491,415.314 491.418,415.758C491.546,415.882 491.694,415.978 491.863,416.046L496.861,418.044C497.02,418.105 497.184,418.136 497.353,418.137C497.962,418.112 498.393,417.823 498.648,417.268C498.851,416.691 498.741,416.182 498.318,415.741C498.189,415.618 498.04,415.522 497.871,415.455L492.885,413.462C492.727,413.401 492.564,413.369 492.394,413.367" style="fill:rgb(41,38,39);fill-rule:nonzero;stroke:rgb(41,38,39);stroke-width:1.31px;"/>
            </g>
            <g transform="matrix(0.558879,0,0,0.558879,770.268,1494.43)">
                <path d="M692.289,448.276C691.747,448.417 691.602,448.724 691.852,449.196L707.41,466.892C707.51,467.024 707.658,467.096 707.852,467.108C708.395,466.97 708.542,466.664 708.295,466.191L692.713,448.468C692.597,448.342 692.457,448.278 692.296,448.276" style="fill:rgb(41,38,39);fill-rule:nonzero;stroke:rgb(41,38,39);stroke-width:1.31px;"/>
            </g>
            <g transform="matrix(0.558879,0,0,0.558879,770.268,1494.43)">
                <path d="M693.767,446.23C693.225,446.372 693.08,446.678 693.33,447.15L708.912,464.873C709.029,464.998 709.168,465.061 709.33,465.062C709.872,464.925 710.02,464.619 709.773,464.145L694.191,446.422C694.075,446.297 693.935,446.233 693.774,446.23" style="fill:rgb(41,38,39);fill-rule:nonzero;stroke:rgb(41,38,39);stroke-width:1.31px;"/>
            </g>
            <g transform="matrix(0.558879,0,0,0.558879,770.268,1494.43)">
                <path d="M697.292,441.458C696.75,441.599 696.604,441.906 696.855,442.378L712.436,460.1C712.553,460.225 712.693,460.288 712.855,460.29C713.397,460.152 713.545,459.846 713.297,459.372L697.716,441.649C697.599,441.524 697.46,441.46 697.298,441.458" style="fill:rgb(41,38,39);fill-rule:nonzero;stroke:rgb(41,38,39);stroke-width:1.31px;"/>
            </g>
            <g transform="matrix(0.558879,0,0,0.558879,770.268,1494.43)">
                <path d="M698.884,439.299C698.342,439.44 698.196,439.746 698.446,440.219L714.028,457.941C714.145,458.066 714.284,458.129 714.446,458.131C714.989,457.993 715.136,457.687 714.889,457.213L699.307,439.49C699.191,439.365 699.052,439.301 698.89,439.299" style="fill:rgb(41,38,39);fill-rule:nonzero;stroke:rgb(41,38,39);stroke-width:1.31px;"/>
            </g>
            <g transform="matrix(0.558879,0,0,0.558879,770.268,1494.43)">
                <path d="M703.158,436.11C702.616,436.252 702.47,436.558 702.721,437.031L718.302,454.753C718.419,454.878 718.559,454.941 718.721,454.943C719.263,454.805 719.411,454.499 719.163,454.025L703.582,436.302C703.465,436.177 703.326,436.113 703.164,436.111" style="fill:rgb(41,38,39);fill-rule:nonzero;stroke:rgb(41,38,39);stroke-width:1.31px;"/>
            </g>
            <g transform="matrix(0.558879,0,0,0.558879,770.268,1494.43)">
                <path d="M705.03,434.593C704.488,434.735 704.342,435.041 704.593,435.513L720.174,453.236C720.291,453.361 720.431,453.424 720.593,453.425C721.135,453.287 721.283,452.982 721.035,452.508L705.454,434.785C705.337,434.66 705.198,434.596 705.036,434.593" style="fill:rgb(41,38,39);fill-rule:nonzero;stroke:rgb(41,38,39);stroke-width:1.31px;"/>
            </g>
            <g transform="matrix(0.558879,0,0,0.558879,770.268,1494.43)">
                <path d="M783.455,568.094L780.657,574.776L773.833,578.837L783.435,568.116M785.267,564.663C785.088,564.67 784.947,564.734 784.842,564.856L770.562,580.792C770.487,580.873 770.439,580.943 770.42,581.003C770.343,581.265 770.394,581.475 770.573,581.634C770.749,581.784 770.954,581.812 771.19,581.718L779.918,576.543L776.529,584.641C776.461,585.084 776.637,585.333 777.058,585.388C777.315,585.37 777.489,585.256 777.581,585.046L781.756,575.309C781.798,575.206 781.808,575.105 781.785,575.005L785.796,565.422C785.872,564.976 785.701,564.724 785.282,564.663" style="fill:rgb(41,38,39);fill-rule:nonzero;stroke:rgb(41,38,39);stroke-width:1.31px;"/>
            </g>
            <g transform="matrix(0.558879,0,0,0.558879,770.268,1494.43)">
                <path d="M795.555,571.612C795.428,571.607 795.301,571.656 795.176,571.759L779.853,585.824C779.704,585.98 779.663,586.176 779.732,586.411C779.836,586.64 780.003,586.762 780.234,586.777C780.394,586.781 780.531,586.731 780.644,586.627L795.945,572.584C796.115,572.404 796.16,572.201 796.082,571.974C795.976,571.745 795.807,571.625 795.576,571.613" style="fill:rgb(41,38,39);fill-rule:nonzero;stroke:rgb(41,38,39);stroke-width:1.31px;"/>
            </g>
        </g>
        <g transform="matrix(0.814786,-1.40384,0.758491,1.95114,-10568.6,-2389.24)">
            <path d="M7193.57,6654.32L7193.57,6651.81L7320.9,6651.81L7320.9,6644.13L7331.07,6653.06L7320.9,6662L7320.9,6654.32L7193.57,6654.32Z" style="fill:rgb(97,97,97);"/>
        </g>
        <g transform="matrix(1.1976,0,0,2.52127,-2086.94,-3447.31)">
            <text x="2133.46px" y="1481.42px" style="font-family:'DINPro', 'DIN Pro', sans-serif;font-size:18.37px;fill:rgb(97,97,97);">Letr<tspan x="2167.37px " y="1481.42px ">a</tspan> indicador<tspan x="2257.07px " y="1481.42px ">a</tspan> de la</text>
            <text x="2133.46px" y="1504.38px" style="font-family:'DINPro', 'DIN Pro', sans-serif;font-size:18.37px;fill:rgb(97,97,97);">posición del pedal.</text>
            <text x="2133.46px" y="1544.01px" style="font-family:'DINPro', 'DIN Pro', sans-serif;font-size:18.37px;fill:rgb(97,97,97);">L = Izquier<tspan x="2218.22px " y="1544.01px ">d</tspan>a</text>
            <text x="2133.46px" y="1566.98px" style="font-family:'DINPro', 'DIN Pro', sans-serif;font-size:18.37px;fill:rgb(97,97,97);">R = Der<tspan x="2193.53px " y="1566.98px ">e</tspan>cha</text>
        </g>
    </g>
</svg>
